%YAML 1.1
%TAG !u! tag:unity3d.com,2011:
--- !u!114 &11400000
MonoBehaviour:
  m_ObjectHideFlags: 0
  m_CorrespondingSourceObject: {fileID: 0}
  m_PrefabInstance: {fileID: 0}
  m_PrefabAsset: {fileID: 0}
  m_GameObject: {fileID: 0}
  m_Enabled: 1
  m_EditorHideFlags: 0
  m_Script: {fileID: 11500000, guid: c333ccfdd0cbdbc4ca30cef2dd6e6b9b, type: 3}
  m_Name: AnimatorReset
  m_EditorClassIdentifier: 
  serializedUdonProgramAsset: {fileID: 11400000, guid: b9175848369aca847889d83f34ce51d2,
    type: 2}
  udonAssembly: 
  assemblyError: 
  sourceCsScript: {fileID: 11500000, guid: b0243ca37fb3c134aa17d845ff1b7422, type: 3}
  behaviourSyncMode: 1
  behaviourIDHeapVarName: __refl_const_intnl_udonTypeID
  compileErrors: []
  hasInteractEvent: 1
  serializationData:
    SerializedFormat: 2
    SerializedBytes: 
    ReferencedUnityObjects: []
    SerializedBytesString: 
    Prefab: {fileID: 0}
    PrefabModificationsReferencedUnityObjects: []
    PrefabModifications: []
    SerializationNodes:
    - Name: fieldDefinitions
      Entry: 7
      Data: 0|System.Collections.Generic.Dictionary`2[[System.String, mscorlib],[UdonSharp.Compiler.FieldDefinition,
        UdonSharp.Editor]], mscorlib
    - Name: comparer
      Entry: 7
      Data: 1|System.Collections.Generic.GenericEqualityComparer`1[[System.String,
        mscorlib]], mscorlib
    - Name: 
      Entry: 8
      Data: 
    - Name: 
      Entry: 12
      Data: 5
    - Name: 
      Entry: 7
      Data: 
    - Name: $k
      Entry: 1
      Data: buttonSelf
    - Name: $v
      Entry: 7
      Data: 2|UdonSharp.Compiler.FieldDefinition, UdonSharp.Editor
    - Name: fieldSymbol
      Entry: 7
      Data: 3|UdonSharp.Compiler.SymbolDefinition, UdonSharp.Editor
    - Name: internalType
      Entry: 7
      Data: 4|System.RuntimeType, mscorlib
    - Name: 
      Entry: 1
      Data: UnityEngine.Animator, UnityEngine.AnimationModule
    - Name: 
      Entry: 8
      Data: 
    - Name: declarationType
      Entry: 3
      Data: 1
    - Name: syncMode
      Entry: 3
      Data: 0
    - Name: symbolResolvedTypeName
      Entry: 1
      Data: UnityEngineAnimator
    - Name: symbolOriginalName
      Entry: 1
      Data: buttonSelf
    - Name: symbolUniqueName
      Entry: 1
      Data: buttonSelf
    - Name: symbolDefaultValue
      Entry: 6
      Data: 
    - Name: 
      Entry: 8
      Data: 
    - Name: fieldAttributes
      Entry: 7
      Data: 5|System.Collections.Generic.List`1[[System.Attribute, mscorlib]], mscorlib
    - Name: 
      Entry: 12
      Data: 0
    - Name: 
      Entry: 13
      Data: 
    - Name: 
      Entry: 8
      Data: 
    - Name: userBehaviourSource
      Entry: 6
      Data: 
    - Name: 
      Entry: 8
      Data: 
    - Name: 
      Entry: 8
      Data: 
    - Name: 
      Entry: 7
      Data: 
    - Name: $k
      Entry: 1
      Data: targetAnimator
    - Name: $v
      Entry: 7
      Data: 6|UdonSharp.Compiler.FieldDefinition, UdonSharp.Editor
    - Name: fieldSymbol
      Entry: 7
      Data: 7|UdonSharp.Compiler.SymbolDefinition, UdonSharp.Editor
    - Name: internalType
      Entry: 9
      Data: 4
    - Name: declarationType
      Entry: 3
      Data: 1
    - Name: syncMode
      Entry: 3
      Data: 0
    - Name: symbolResolvedTypeName
      Entry: 1
      Data: UnityEngineAnimator
    - Name: symbolOriginalName
      Entry: 1
      Data: targetAnimator
    - Name: symbolUniqueName
      Entry: 1
      Data: targetAnimator
    - Name: symbolDefaultValue
      Entry: 6
      Data: 
    - Name: 
      Entry: 8
      Data: 
    - Name: fieldAttributes
      Entry: 7
      Data: 8|System.Collections.Generic.List`1[[System.Attribute, mscorlib]], mscorlib
    - Name: 
      Entry: 12
      Data: 0
    - Name: 
      Entry: 13
      Data: 
    - Name: 
      Entry: 8
      Data: 
    - Name: userBehaviourSource
      Entry: 6
      Data: 
    - Name: 
      Entry: 8
      Data: 
    - Name: 
      Entry: 8
      Data: 
    - Name: 
      Entry: 7
      Data: 
    - Name: $k
      Entry: 1
      Data: targetStateName
    - Name: $v
      Entry: 7
      Data: 9|UdonSharp.Compiler.FieldDefinition, UdonSharp.Editor
    - Name: fieldSymbol
      Entry: 7
      Data: 10|UdonSharp.Compiler.SymbolDefinition, UdonSharp.Editor
    - Name: internalType
      Entry: 7
      Data: 11|System.RuntimeType, mscorlib
    - Name: 
      Entry: 1
      Data: System.String, mscorlib
    - Name: 
      Entry: 8
      Data: 
    - Name: declarationType
      Entry: 3
      Data: 1
    - Name: syncMode
      Entry: 3
      Data: 0
    - Name: symbolResolvedTypeName
      Entry: 1
      Data: SystemString
    - Name: symbolOriginalName
      Entry: 1
      Data: targetStateName
    - Name: symbolUniqueName
      Entry: 1
      Data: targetStateName
    - Name: symbolDefaultValue
      Entry: 6
      Data: 
    - Name: 
      Entry: 8
      Data: 
    - Name: fieldAttributes
      Entry: 7
      Data: 12|System.Collections.Generic.List`1[[System.Attribute, mscorlib]], mscorlib
    - Name: 
      Entry: 12
      Data: 0
    - Name: 
      Entry: 13
      Data: 
    - Name: 
      Entry: 8
      Data: 
    - Name: userBehaviourSource
      Entry: 6
      Data: 
    - Name: 
      Entry: 8
      Data: 
    - Name: 
      Entry: 8
      Data: 
    - Name: 
      Entry: 7
      Data: 
    - Name: $k
      Entry: 1
      Data: targetLayer
    - Name: $v
      Entry: 7
      Data: 13|UdonSharp.Compiler.FieldDefinition, UdonSharp.Editor
    - Name: fieldSymbol
      Entry: 7
      Data: 14|UdonSharp.Compiler.SymbolDefinition, UdonSharp.Editor
    - Name: internalType
      Entry: 7
      Data: 15|System.RuntimeType, mscorlib
    - Name: 
      Entry: 1
      Data: System.Int32, mscorlib
    - Name: 
      Entry: 8
      Data: 
    - Name: declarationType
      Entry: 3
      Data: 1
    - Name: syncMode
      Entry: 3
      Data: 0
    - Name: symbolResolvedTypeName
      Entry: 1
      Data: SystemInt32
    - Name: symbolOriginalName
      Entry: 1
      Data: targetLayer
    - Name: symbolUniqueName
      Entry: 1
      Data: targetLayer
    - Name: symbolDefaultValue
      Entry: 6
      Data: 
    - Name: 
      Entry: 8
      Data: 
    - Name: fieldAttributes
      Entry: 7
      Data: 16|System.Collections.Generic.List`1[[System.Attribute, mscorlib]], mscorlib
    - Name: 
      Entry: 12
      Data: 0
    - Name: 
      Entry: 13
      Data: 
    - Name: 
      Entry: 8
      Data: 
    - Name: userBehaviourSource
      Entry: 6
      Data: 
    - Name: 
      Entry: 8
      Data: 
    - Name: 
      Entry: 8
      Data: 
    - Name: 
      Entry: 7
      Data: 
    - Name: $k
      Entry: 1
      Data: resetNormalizedTime
    - Name: $v
      Entry: 7
      Data: 17|UdonSharp.Compiler.FieldDefinition, UdonSharp.Editor
    - Name: fieldSymbol
      Entry: 7
      Data: 18|UdonSharp.Compiler.SymbolDefinition, UdonSharp.Editor
    - Name: internalType
      Entry: 7
      Data: 19|System.RuntimeType, mscorlib
    - Name: 
      Entry: 1
      Data: System.Single, mscorlib
    - Name: 
      Entry: 8
      Data: 
    - Name: declarationType
      Entry: 3
      Data: 1
    - Name: syncMode
      Entry: 3
      Data: 0
    - Name: symbolResolvedTypeName
      Entry: 1
      Data: SystemSingle
    - Name: symbolOriginalName
      Entry: 1
      Data: resetNormalizedTime
    - Name: symbolUniqueName
      Entry: 1
      Data: resetNormalizedTime
    - Name: symbolDefaultValue
      Entry: 6
      Data: 
    - Name: 
      Entry: 8
      Data: 
    - Name: fieldAttributes
      Entry: 7
      Data: 20|System.Collections.Generic.List`1[[System.Attribute, mscorlib]], mscorlib
    - Name: 
      Entry: 12
      Data: 0
    - Name: 
      Entry: 13
      Data: 
    - Name: 
      Entry: 8
      Data: 
    - Name: userBehaviourSource
      Entry: 6
      Data: 
    - Name: 
      Entry: 8
      Data: 
    - Name: 
      Entry: 8
      Data: 
    - Name: 
      Entry: 13
      Data: 
    - Name: 
      Entry: 8
      Data: 
