%YAML 1.1
%TAG !u! tag:unity3d.com,2011:
--- !u!114 &11400000
MonoBehaviour:
  m_ObjectHideFlags: 0
  m_CorrespondingSourceObject: {fileID: 0}
  m_PrefabInstance: {fileID: 0}
  m_PrefabAsset: {fileID: 0}
  m_GameObject: {fileID: 0}
  m_Enabled: 1
  m_EditorHideFlags: 0
  m_Script: {fileID: 11500000, guid: c333ccfdd0cbdbc4ca30cef2dd6e6b9b, type: 3}
  m_Name: ChangeOwner
  m_EditorClassIdentifier: 
  serializedUdonProgramAsset: {fileID: 11400000, guid: 59701182421be274f9950569eb782d1f,
    type: 2}
  udonAssembly: 
  assemblyError: 
  sourceCsScript: {fileID: 11500000, guid: f99785b53c3d0aa4a8f951b2e9953bb3, type: 3}
  behaviourSyncMode: 3
  behaviourIDHeapVarName: __refl_const_intnl_udonTypeID
  compileErrors: []
  hasInteractEvent: 1
  serializationData:
    SerializedFormat: 2
    SerializedBytes: 
    ReferencedUnityObjects: []
    SerializedBytesString: 
    Prefab: {fileID: 0}
    PrefabModificationsReferencedUnityObjects: []
    PrefabModifications: []
    SerializationNodes:
    - Name: fieldDefinitions
      Entry: 7
      Data: 0|System.Collections.Generic.Dictionary`2[[System.String, mscorlib],[UdonSharp.Compiler.FieldDefinition,
        UdonSharp.Editor]], mscorlib
    - Name: comparer
      Entry: 7
      Data: 1|System.Collections.Generic.GenericEqualityComparer`1[[System.String,
        mscorlib]], mscorlib
    - Name: 
      Entry: 8
      Data: 
    - Name: 
      Entry: 12
      Data: 7
    - Name: 
      Entry: 7
      Data: 
    - Name: $k
      Entry: 1
      Data: buttonSelf
    - Name: $v
      Entry: 7
      Data: 2|UdonSharp.Compiler.FieldDefinition, UdonSharp.Editor
    - Name: fieldSymbol
      Entry: 7
      Data: 3|UdonSharp.Compiler.SymbolDefinition, UdonSharp.Editor
    - Name: internalType
      Entry: 7
      Data: 4|System.RuntimeType, mscorlib
    - Name: 
      Entry: 1
      Data: UnityEngine.Animator, UnityEngine.AnimationModule
    - Name: 
      Entry: 8
      Data: 
    - Name: declarationType
      Entry: 3
      Data: 1
    - Name: syncMode
      Entry: 3
      Data: 0
    - Name: symbolResolvedTypeName
      Entry: 1
      Data: UnityEngineAnimator
    - Name: symbolOriginalName
      Entry: 1
      Data: buttonSelf
    - Name: symbolUniqueName
      Entry: 1
      Data: buttonSelf
    - Name: symbolDefaultValue
      Entry: 6
      Data: 
    - Name: 
      Entry: 8
      Data: 
    - Name: fieldAttributes
      Entry: 7
      Data: 5|System.Collections.Generic.List`1[[System.Attribute, mscorlib]], mscorlib
    - Name: 
      Entry: 12
      Data: 0
    - Name: 
      Entry: 13
      Data: 
    - Name: 
      Entry: 8
      Data: 
    - Name: userBehaviourSource
      Entry: 6
      Data: 
    - Name: 
      Entry: 8
      Data: 
    - Name: 
      Entry: 8
      Data: 
    - Name: 
      Entry: 7
      Data: 
    - Name: $k
      Entry: 1
      Data: target
    - Name: $v
      Entry: 7
      Data: 6|UdonSharp.Compiler.FieldDefinition, UdonSharp.Editor
    - Name: fieldSymbol
      Entry: 7
      Data: 7|UdonSharp.Compiler.SymbolDefinition, UdonSharp.Editor
    - Name: internalType
      Entry: 7
      Data: 8|System.RuntimeType, mscorlib
    - Name: 
      Entry: 1
      Data: UnityEngine.GameObject, UnityEngine.CoreModule
    - Name: 
      Entry: 8
      Data: 
    - Name: declarationType
      Entry: 3
      Data: 1
    - Name: syncMode
      Entry: 3
      Data: 0
    - Name: symbolResolvedTypeName
      Entry: 1
      Data: UnityEngineGameObject
    - Name: symbolOriginalName
      Entry: 1
      Data: target
    - Name: symbolUniqueName
      Entry: 1
      Data: target
    - Name: symbolDefaultValue
      Entry: 6
      Data: 
    - Name: 
      Entry: 8
      Data: 
    - Name: fieldAttributes
      Entry: 7
      Data: 9|System.Collections.Generic.List`1[[System.Attribute, mscorlib]], mscorlib
    - Name: 
      Entry: 12
      Data: 0
    - Name: 
      Entry: 13
      Data: 
    - Name: 
      Entry: 8
      Data: 
    - Name: userBehaviourSource
      Entry: 6
      Data: 
    - Name: 
      Entry: 8
      Data: 
    - Name: 
      Entry: 8
      Data: 
    - Name: 
      Entry: 7
      Data: 
    - Name: $k
      Entry: 1
      Data: ownerNameText
    - Name: $v
      Entry: 7
      Data: 10|UdonSharp.Compiler.FieldDefinition, UdonSharp.Editor
    - Name: fieldSymbol
      Entry: 7
      Data: 11|UdonSharp.Compiler.SymbolDefinition, UdonSharp.Editor
    - Name: internalType
      Entry: 7
      Data: 12|System.RuntimeType, mscorlib
    - Name: 
      Entry: 1
      Data: UnityEngine.UI.Text, UnityEngine.UI
    - Name: 
      Entry: 8
      Data: 
    - Name: declarationType
      Entry: 3
      Data: 1
    - Name: syncMode
      Entry: 3
      Data: 0
    - Name: symbolResolvedTypeName
      Entry: 1
      Data: UnityEngineUIText
    - Name: symbolOriginalName
      Entry: 1
      Data: ownerNameText
    - Name: symbolUniqueName
      Entry: 1
      Data: ownerNameText
    - Name: symbolDefaultValue
      Entry: 6
      Data: 
    - Name: 
      Entry: 8
      Data: 
    - Name: fieldAttributes
      Entry: 7
      Data: 13|System.Collections.Generic.List`1[[System.Attribute, mscorlib]], mscorlib
    - Name: 
      Entry: 12
      Data: 0
    - Name: 
      Entry: 13
      Data: 
    - Name: 
      Entry: 8
      Data: 
    - Name: userBehaviourSource
      Entry: 6
      Data: 
    - Name: 
      Entry: 8
      Data: 
    - Name: 
      Entry: 8
      Data: 
    - Name: 
      Entry: 7
      Data: 
    - Name: $k
      Entry: 1
      Data: updateInterval
    - Name: $v
      Entry: 7
      Data: 14|UdonSharp.Compiler.FieldDefinition, UdonSharp.Editor
    - Name: fieldSymbol
      Entry: 7
      Data: 15|UdonSharp.Compiler.SymbolDefinition, UdonSharp.Editor
    - Name: internalType
      Entry: 7
      Data: 16|System.RuntimeType, mscorlib
    - Name: 
      Entry: 1
      Data: System.Int32, mscorlib
    - Name: 
      Entry: 8
      Data: 
    - Name: declarationType
      Entry: 3
      Data: 1
    - Name: syncMode
      Entry: 3
      Data: 0
    - Name: symbolResolvedTypeName
      Entry: 1
      Data: SystemInt32
    - Name: symbolOriginalName
      Entry: 1
      Data: updateInterval
    - Name: symbolUniqueName
      Entry: 1
      Data: updateInterval
    - Name: symbolDefaultValue
      Entry: 6
      Data: 
    - Name: 
      Entry: 8
      Data: 
    - Name: fieldAttributes
      Entry: 7
      Data: 17|System.Collections.Generic.List`1[[System.Attribute, mscorlib]], mscorlib
    - Name: 
      Entry: 12
      Data: 0
    - Name: 
      Entry: 13
      Data: 
    - Name: 
      Entry: 8
      Data: 
    - Name: userBehaviourSource
      Entry: 6
      Data: 
    - Name: 
      Entry: 8
      Data: 
    - Name: 
      Entry: 8
      Data: 
    - Name: 
      Entry: 7
      Data: 
    - Name: $k
      Entry: 1
      Data: _execSetOwner
    - Name: $v
      Entry: 7
      Data: 18|UdonSharp.Compiler.FieldDefinition, UdonSharp.Editor
    - Name: fieldSymbol
      Entry: 7
      Data: 19|UdonSharp.Compiler.SymbolDefinition, UdonSharp.Editor
    - Name: internalType
      Entry: 7
      Data: 20|System.RuntimeType, mscorlib
    - Name: 
      Entry: 1
      Data: System.Boolean, mscorlib
    - Name: 
      Entry: 8
      Data: 
    - Name: declarationType
      Entry: 3
      Data: 2
    - Name: syncMode
      Entry: 3
      Data: 1
    - Name: symbolResolvedTypeName
      Entry: 1
      Data: SystemBoolean
    - Name: symbolOriginalName
      Entry: 1
      Data: _execSetOwner
    - Name: symbolUniqueName
      Entry: 1
      Data: _execSetOwner
    - Name: symbolDefaultValue
      Entry: 6
      Data: 
    - Name: 
      Entry: 8
      Data: 
    - Name: fieldAttributes
      Entry: 7
      Data: 21|System.Collections.Generic.List`1[[System.Attribute, mscorlib]], mscorlib
    - Name: 
      Entry: 12
      Data: 1
    - Name: 
      Entry: 7
      Data: 22|UdonSharp.UdonSyncedAttribute, UdonSharp.Runtime
    - Name: 
      Entry: 8
      Data: 
    - Name: 
      Entry: 13
      Data: 
    - Name: 
      Entry: 8
      Data: 
    - Name: userBehaviourSource
      Entry: 6
      Data: 
    - Name: 
      Entry: 8
      Data: 
    - Name: 
      Entry: 8
      Data: 
    - Name: 
      Entry: 7
      Data: 
    - Name: $k
      Entry: 1
      Data: _playerId
    - Name: $v
      Entry: 7
      Data: 23|UdonSharp.Compiler.FieldDefinition, UdonSharp.Editor
    - Name: fieldSymbol
      Entry: 7
      Data: 24|UdonSharp.Compiler.SymbolDefinition, UdonSharp.Editor
    - Name: internalType
      Entry: 9
      Data: 16
    - Name: declarationType
      Entry: 3
      Data: 2
    - Name: syncMode
      Entry: 3
      Data: 1
    - Name: symbolResolvedTypeName
      Entry: 1
      Data: SystemInt32
    - Name: symbolOriginalName
      Entry: 1
      Data: _playerId
    - Name: symbolUniqueName
      Entry: 1
      Data: _playerId
    - Name: symbolDefaultValue
      Entry: 6
      Data: 
    - Name: 
      Entry: 8
      Data: 
    - Name: fieldAttributes
      Entry: 7
      Data: 25|System.Collections.Generic.List`1[[System.Attribute, mscorlib]], mscorlib
    - Name: 
      Entry: 12
      Data: 1
    - Name: 
      Entry: 7
      Data: 26|UdonSharp.UdonSyncedAttribute, UdonSharp.Runtime
    - Name: 
      Entry: 8
      Data: 
    - Name: 
      Entry: 13
      Data: 
    - Name: 
      Entry: 8
      Data: 
    - Name: userBehaviourSource
      Entry: 6
      Data: 
    - Name: 
      Entry: 8
      Data: 
    - Name: 
      Entry: 8
      Data: 
    - Name: 
      Entry: 7
      Data: 
    - Name: $k
      Entry: 1
      Data: _updateCount
    - Name: $v
      Entry: 7
      Data: 27|UdonSharp.Compiler.FieldDefinition, UdonSharp.Editor
    - Name: fieldSymbol
      Entry: 7
      Data: 28|UdonSharp.Compiler.SymbolDefinition, UdonSharp.Editor
    - Name: internalType
      Entry: 9
      Data: 16
    - Name: declarationType
      Entry: 3
      Data: 2
    - Name: syncMode
      Entry: 3
      Data: 0
    - Name: symbolResolvedTypeName
      Entry: 1
      Data: SystemInt32
    - Name: symbolOriginalName
      Entry: 1
      Data: _updateCount
    - Name: symbolUniqueName
      Entry: 1
      Data: _updateCount
    - Name: symbolDefaultValue
      Entry: 6
      Data: 
    - Name: 
      Entry: 8
      Data: 
    - Name: fieldAttributes
      Entry: 7
      Data: 29|System.Collections.Generic.List`1[[System.Attribute, mscorlib]], mscorlib
    - Name: 
      Entry: 12
      Data: 0
    - Name: 
      Entry: 13
      Data: 
    - Name: 
      Entry: 8
      Data: 
    - Name: userBehaviourSource
      Entry: 6
      Data: 
    - Name: 
      Entry: 8
      Data: 
    - Name: 
      Entry: 8
      Data: 
    - Name: 
      Entry: 13
      Data: 
    - Name: 
      Entry: 8
      Data: 
