%YAML 1.1
%TAG !u! tag:unity3d.com,2011:
--- !u!114 &11400000
MonoBehaviour:
  m_ObjectHideFlags: 0
  m_CorrespondingSourceObject: {fileID: 0}
  m_PrefabInstance: {fileID: 0}
  m_PrefabAsset: {fileID: 0}
  m_GameObject: {fileID: 0}
  m_Enabled: 1
  m_EditorHideFlags: 0
  m_Script: {fileID: 11500000, guid: c333ccfdd0cbdbc4ca30cef2dd6e6b9b, type: 3}
  m_Name: DebugTargetPrototype
  m_EditorClassIdentifier: 
  serializedUdonProgramAsset: {fileID: 11400000, guid: 9ac21b39f11a8ab47a30f12cfc412b1b,
    type: 2}
  udonAssembly: 
  assemblyError: 
  sourceCsScript: {fileID: 11500000, guid: bf27febf2d9b483a81908ee34c830a88, type: 3}
  behaviourSyncMode: 1
  behaviourIDHeapVarName: __refl_const_intnl_udonTypeID
  compileErrors: []
  hasInteractEvent: 0
  serializationData:
    SerializedFormat: 2
    SerializedBytes: 
    ReferencedUnityObjects: []
    SerializedBytesString: 
    Prefab: {fileID: 0}
    PrefabModificationsReferencedUnityObjects: []
    PrefabModifications: []
    SerializationNodes:
    - Name: fieldDefinitions
      Entry: 7
      Data: 0|System.Collections.Generic.Dictionary`2[[System.String, mscorlib],[UdonSharp.Compiler.FieldDefinition,
        UdonSharp.Editor]], mscorlib
    - Name: comparer
      Entry: 7
      Data: 1|System.Collections.Generic.GenericEqualityComparer`1[[System.String,
        mscorlib]], mscorlib
    - Name: 
      Entry: 8
      Data: 
    - Name: 
      Entry: 12
      Data: 0
    - Name: 
      Entry: 13
      Data: 
    - Name: 
      Entry: 8
      Data: 
